Path Analysis Using R
…
      June 24, 2025

In this set of notes, we will use the data from path-model-achievement.csv to fit a path model to explain effects on high school achievement. The data were simulated to include attributes for 1000 students from information provided by Keith (2015).

# Load libraries
library(tidyverse)
library(broom)
library(lavaan)

# Import data
keith = read_csv("https://raw.githubusercontent.com/zief0002/redesigned-adventure/main/data/path-model-achievement.csv")
keith

# A tibble: 1,000 × 5
   achieve ability motivation coursework fam_back
     <dbl>   <dbl>      <dbl>      <dbl>    <dbl>
 1 -0.511   0.656      -1.10       0.130   0.300 
 2 -0.569   0.273      -1.48      -1.68   -0.419 
 3  0.997  -0.402      -0.284      1.29   -0.334 
 4  0.681   1.31        1.77       0.801   1.14  
 5 -0.838   0.281       1.51       0.415   0.872 
 6  0.206  -0.884      -0.128      0.591  -1.29  
 7  1.07    1.92       -0.405      1.41    0.529 
 8 -0.418  -0.857       0.207     -1.59   -2.23  
 9  0.0460 -0.0173     -1.40      -1.58   -2.72  
10  0.742   0.312      -1.82      -0.400  -0.0957
# ℹ 990 more rows
…
