Diagnosing Collinearity
…
# Load libraries
library(broom)
library(car)
library(corrr)
library(educate)
library(tidyverse)
library(patchwork)

# Read in data
eeo = read_csv("https://raw.githubusercontent.com/zief0002/redesigned-adventure/main/data/equal-education-opportunity.csv")

# View data
eeo

# A tibble: 70 × 4
   achievement faculty    peer  school
         <dbl>   <dbl>   <dbl>   <dbl>
 1      -0.431   0.608  0.0351  0.166 
 2       0.800   0.794  0.479   0.534 
 3      -0.925  -0.826 -0.620  -0.786 
 4      -2.19   -1.25  -1.22   -1.04  
 5      -2.85    0.174 -0.185   0.142 
 6      -0.662   0.202  0.128   0.273 
 7       2.64    0.242 -0.0902  0.0497
 8       2.36    0.594  0.218   0.519 
 9      -0.913  -0.616 -0.490  -0.632 
10       0.594   0.994  0.622   0.934 
# ℹ 60 more rows
…
